…
6. Which cities in California have the highest number of colleges?


```r
t_summary <- colleges %>% 
  group_by(CITY) %>% 
  summarize(n_total = n())

t_summary
```

```
## # A tibble: 161 x 2
##    CITY        n_total
##    <chr>         <int>
##  1 Alameda           3
##  2 Anaheim           4
##  3 Angwin            1
##  4 Aptos             1
##  5 Arcata            1
##  6 Atherton          1
##  7 Azusa             1
##  8 Bakersfield       3
##  9 Barstow           1
## 10 Belmont           1
## # … with 151 more rows
```



7. The column `COSTT4_A` is the annual cost of each institution. Which city has the highest cost?


```r
Cost <- colleges %>%
  select(COSTT4_A,CITY) %>%
arrange(desc(COSTT4_A))
Cost
```

```
## # A tibble: 341 x 2
##    COSTT4_A CITY         
##       <dbl> <chr>        
##  1    69355 Claremont    
##  2    67225 Los Angeles  
##  3    67064 Los Angeles  
##  4    67046 Los Angeles  
##  5    66325 Claremont    
##  6    66152 Malibu       
##  7    66060 Claremont    
##  8    65880 Claremont    
##  9    65453 San Francisco
## 10    64870 Claremont    
## # … with 331 more rows
```
…
