…
6. Which cities in California have the highest number of colleges?


```r
t_summary <- colleges %>% 
  group_by(CITY) %>% 
  summarize(n_total = n())

t_summary
```

```
## # A tibble: 161 x 2
##    CITY        n_total
##    <chr>         <int>
##  1 Alameda           3
##  2 Anaheim           4
##  3 Angwin            1
##  4 Aptos             1
##  5 Arcata            1
##  6 Atherton          1
##  7 Azusa             1
##  8 Bakersfield       3
##  9 Barstow           1
## 10 Belmont           1
## # ... with 151 more rows
```



7. The column `COSTT4_A` is the annual cost of each institution. Which city has the highest cost?


```r
Cost <- colleges %>%
  select(COSTT4_A,CITY) %>%
arrange(desc(COSTT4_A))
Cost
```

```
## # A tibble: 341 x 2
##    COSTT4_A CITY         
##       <dbl> <chr>        
##  1    69355 Claremont    
##  2    67225 Los Angeles  
##  3    67064 Los Angeles  
##  4    67046 Los Angeles  
##  5    66325 Claremont    
##  6    66152 Malibu       
##  7    66060 Claremont    
##  8    65880 Claremont    
##  9    65453 San Francisco
## 10    64870 Claremont    
## # ... with 331 more rows
```
…
```
## Warning: Expected 2 pieces. Missing pieces filled with `NA` in 264 rows [1,
## 2, 3, 4, 5, 6, 7, 8, 9, 10, 11, 12, 13, 14, 15, 16, 17, 18, 19, 20, ...].
```

```r
colleges
```

```
## # A tibble: 341 x 11
##    UNIV  CAMPUS CITY  STABBR ZIP   ADM_RATE SAT_AVG PCIP26 COSTT4_A
##    <chr> <chr>  <chr> <chr>  <chr>    <dbl>   <dbl>  <dbl>    <dbl>
##  1 Gros~ <NA>   El C~ CA     9202~       NA      NA 0.0016     7956
##  2 Coll~ <NA>   Visa~ CA     9327~       NA      NA 0.0066     8109
##  3 Coll~ <NA>   San ~ CA     9440~       NA      NA 0.0038     8278
##  4 Vent~ <NA>   Vent~ CA     9300~       NA      NA 0.0035     8407
##  5 Oxna~ <NA>   Oxna~ CA     9303~       NA      NA 0.0085     8516
##  6 Moor~ <NA>   Moor~ CA     9302~       NA      NA 0.0151     8577
##  7 Skyl~ <NA>   San ~ CA     9406~       NA      NA 0          8580
##  8 Glen~ <NA>   Glen~ CA     9120~       NA      NA 0.002      9181
##  9 Citr~ <NA>   Glen~ CA     9174~       NA      NA 0.0021     9281
## 10 Fres~ <NA>   Fres~ CA     93741       NA      NA 0.0324     9370
## # ... with 331 more rows, and 2 more variables: C150_4_POOLED <dbl>,
## #   PFTFTUG1_EF <dbl>
```


11. As a final step, remove `Hastings College of Law` and `UC San Francisco` and store the final data frame as a new object `univ_calif_final`.

```r
univ_calif_final <- 
  colleges %>% 
  filter(CAMPUS !="Hastings College of Law",
         CAMPUS !="San Francisco")
univ_calif_final
```

```
## # A tibble: 73 x 11
##    UNIV  CAMPUS CITY  STABBR ZIP   ADM_RATE SAT_AVG PCIP26 COSTT4_A
##    <chr> <chr>  <chr> <chr>  <chr>    <dbl>   <dbl>  <dbl>    <dbl>
##  1 Cali~ Domin~ Cars~ CA     9074~    0.479      NA 0.03      13027
##  2 Cali~ Los A~ Los ~ CA     9003~    0.637     870 0.042     13385
##  3 West~ Coali~ Coal~ CA     93210   NA          NA 0         13846
##  4 El C~ Compt~ Comp~ CA     9022~   NA          NA 0         15261
##  5 Cali~ San B~ San ~ CA     9240~    0.581     877 0.027     15988
##  6 Cali~ Fresno Fres~ CA     93740    0.535     907 0.0248    16078
##  7 Cali~ Baker~ Bake~ CA     9331~    0.678      NA 0.0671    16481
##  8 Cali~ Stani~ Turl~ CA     9538~    0.743      NA 0.0498    16588
##  9 Cali~ North~ Nort~ CA     91330    0.482     918 0.0341    16591
## 10 Cali~ Fulle~ Full~ CA     9283~    0.482    1017 0.0323    17049
## # ... with 63 more rows, and 2 more variables: C150_4_POOLED <dbl>,
## #   PFTFTUG1_EF <dbl>
```
…
