…
```
## # A tibble: 17,692 x 71
##    country commname spgroup spgroupname spcode sciname region unit  X1950
##    <chr>   <chr>      <dbl> <chr>       <chr>  <chr>    <dbl> <chr> <chr>
##  1 Albania Angelsh~      38 Sharks, ra~ 10903~ Squati~     37 Quan~ ...  
##  2 Albania Atlanti~      36 Tunas, bon~ 17501~ Sarda ~     37 Quan~ ...  
##  3 Albania Barracu~      37 Miscellane~ 17710~ Sphyra~     37 Quan~ ...  
##  4 Albania Blue an~      45 Shrimps, p~ 22802~ Ariste~     37 Quan~ ...  
##  5 Albania Blue wh~      32 Cods, hake~ 14804~ Microm~     37 Quan~ ...  
##  6 Albania Bluefish      37 Miscellane~ 17020~ Pomato~     37 Quan~ ...  
##  7 Albania Bogue         33 Miscellane~ 17039~ Boops ~     37 Quan~ ...  
##  8 Albania Caramot~      45 Shrimps, p~ 22801~ Penaeu~     37 Quan~ ...  
##  9 Albania Catshar~      38 Sharks, ra~ 10801~ Scylio~     37 Quan~ ...  
## 10 Albania Common ~      57 Squids, cu~ 32102~ Sepia ~     37 Quan~ ...  
## # ... with 17,682 more rows, and 62 more variables: X1951 <chr>,
## #   X1952 <chr>, X1953 <chr>, X1954 <chr>, X1955 <chr>, X1956 <chr>,
## #   X1957 <chr>, X1958 <chr>, X1959 <chr>, X1960 <chr>, X1961 <chr>,
## #   X1962 <chr>, X1963 <chr>, X1964 <chr>, X1965 <chr>, X1966 <chr>,
## #   X1967 <chr>, X1968 <chr>, X1969 <chr>, X1970 <chr>, X1971 <chr>,
## #   X1972 <chr>, X1973 <chr>, X1974 <chr>, X1975 <chr>, X1976 <chr>,
## #   X1977 <chr>, X1978 <chr>, X1979 <chr>, X1980 <chr>, X1981 <chr>,
## #   X1982 <chr>, X1983 <chr>, X1984 <chr>, X1985 <chr>, X1986 <chr>,
## #   X1987 <chr>, X1988 <chr>, X1989 <chr>, X1990 <chr>, X1991 <chr>,
…
4. Are these data tidy? Why or why not, and, how do you know?
## The data is not tidy as there are multiple columns in the data set. 

5. We need to tidy the data using `gather()`. The code below will not run because it is commented (#) out. I have added a bit of code that will prevent you from needing to type in each year from 1950-2012 but you need to complete the remainder `QQQ` and remove the `#`.

```r
fisheries_tidy <- 
  fisheries_new %>% 
  gather(num_range('X',1950:2012), key="year", value='catch')
fisheries_new
```

```
## # A tibble: 17,692 x 71
##    country commname spgroup spgroupname spcode sciname region unit  X1950
##    <chr>   <chr>      <dbl> <chr>       <chr>  <chr>    <dbl> <chr> <chr>
##  1 Albania Angelsh~      38 Sharks, ra~ 10903~ Squati~     37 Quan~ ...  
##  2 Albania Atlanti~      36 Tunas, bon~ 17501~ Sarda ~     37 Quan~ ...  
##  3 Albania Barracu~      37 Miscellane~ 17710~ Sphyra~     37 Quan~ ...  
##  4 Albania Blue an~      45 Shrimps, p~ 22802~ Ariste~     37 Quan~ ...  
##  5 Albania Blue wh~      32 Cods, hake~ 14804~ Microm~     37 Quan~ ...  
##  6 Albania Bluefish      37 Miscellane~ 17020~ Pomato~     37 Quan~ ...  
##  7 Albania Bogue         33 Miscellane~ 17039~ Boops ~     37 Quan~ ...  
##  8 Albania Caramot~      45 Shrimps, p~ 22801~ Penaeu~     37 Quan~ ...  
##  9 Albania Catshar~      38 Sharks, ra~ 10801~ Scylio~     37 Quan~ ...  
## 10 Albania Common ~      57 Squids, cu~ 32102~ Sepia ~     37 Quan~ ...  
## # ... with 17,682 more rows, and 62 more variables: X1951 <chr>,
## #   X1952 <chr>, X1953 <chr>, X1954 <chr>, X1955 <chr>, X1956 <chr>,
## #   X1957 <chr>, X1958 <chr>, X1959 <chr>, X1960 <chr>, X1961 <chr>,
## #   X1962 <chr>, X1963 <chr>, X1964 <chr>, X1965 <chr>, X1966 <chr>,
## #   X1967 <chr>, X1968 <chr>, X1969 <chr>, X1970 <chr>, X1971 <chr>,
## #   X1972 <chr>, X1973 <chr>, X1974 <chr>, X1975 <chr>, X1976 <chr>,
## #   X1977 <chr>, X1978 <chr>, X1979 <chr>, X1980 <chr>, X1981 <chr>,
## #   X1982 <chr>, X1983 <chr>, X1984 <chr>, X1985 <chr>, X1986 <chr>,
## #   X1987 <chr>, X1988 <chr>, X1989 <chr>, X1990 <chr>, X1991 <chr>,
…
```
## Warning: NAs introduced by coercion
```

```r
fisheries_tidy
```

```
## # A tibble: 1,114,596 x 10
##    country commname spgroup spgroupname spcode sciname region unit   year
##    <chr>   <chr>      <dbl> <chr>       <chr>  <chr>    <dbl> <chr> <dbl>
##  1 Albania Angelsh~      38 Sharks, ra~ 10903~ Squati~     37 Quan~  1950
##  2 Albania Atlanti~      36 Tunas, bon~ 17501~ Sarda ~     37 Quan~  1950
##  3 Albania Barracu~      37 Miscellane~ 17710~ Sphyra~     37 Quan~  1950
##  4 Albania Blue an~      45 Shrimps, p~ 22802~ Ariste~     37 Quan~  1950
##  5 Albania Blue wh~      32 Cods, hake~ 14804~ Microm~     37 Quan~  1950
##  6 Albania Bluefish      37 Miscellane~ 17020~ Pomato~     37 Quan~  1950
##  7 Albania Bogue         33 Miscellane~ 17039~ Boops ~     37 Quan~  1950
##  8 Albania Caramot~      45 Shrimps, p~ 22801~ Penaeu~     37 Quan~  1950
##  9 Albania Catshar~      38 Sharks, ra~ 10801~ Scylio~     37 Quan~  1950
## 10 Albania Common ~      57 Squids, cu~ 32102~ Sepia ~     37 Quan~  1950
## # ... with 1,114,586 more rows, and 1 more variable: catch <dbl>
```
…
#yes as each column aligns with each row of data 
9. You are a fisheries scientist studying cephalopod catch during 2008-2012. Identify the top five consumers (by country) of cephalopods (don't worry about species for now). Restrict the data frame only to our variables of interest.


```r
fisheries_tidy %>%
  select(country, spgroupname,catch ,year ) %>% 
  filter(
   year==2012 | year==2011 | year==2010 | year==2009 | year==2008,
    spgroupname=="Squids, cuttlefishes, octopuses") %>%
  arrange(desc(catch))
```

```
## # A tibble: 3,725 x 4
##    country  spgroupname                      catch  year
##    <chr>    <chr>                            <dbl> <dbl>
##  1 Peru     Squids, cuttlefishes, octopuses 533414  2008
##  2 China    Squids, cuttlefishes, octopuses 462981  2008
##  3 China    Squids, cuttlefishes, octopuses 434845  2012
##  4 Peru     Squids, cuttlefishes, octopuses 404730  2011
##  5 China    Squids, cuttlefishes, octopuses 392478  2009
##  6 China    Squids, cuttlefishes, octopuses 390393  2011
##  7 Peru     Squids, cuttlefishes, octopuses 369822  2010
##  8 China    Squids, cuttlefishes, octopuses 261000  2012
##  9 Viet Nam Squids, cuttlefishes, octopuses 260000  2010
## 10 Japan    Squids, cuttlefishes, octopuses 242262  2011
## # ... with 3,715 more rows
```

10. Let's be more specific. Who consumes the most `Common cuttlefish`? Store this as a new object `cuttle`.


```r
cuttle<- fisheries_tidy %>% 
  select(country, commname, spgroupname, year, catch) %>% 
  filter(year==2012 | year==2011 | year==2010 | year==2009 | year==2008,
         commname=="Common cuttlefish") %>% 
  arrange(desc(catch))
cuttle
```

```
## # A tibble: 105 x 5
##    country  commname          spgroupname                      year catch
##    <chr>    <chr>             <chr>                           <dbl> <dbl>
##  1 France   Common cuttlefish Squids, cuttlefishes, octopuses  2012 13217
##  2 France   Common cuttlefish Squids, cuttlefishes, octopuses  2011 12966
##  3 France   Common cuttlefish Squids, cuttlefishes, octopuses  2009  8076
##  4 Tunisia  Common cuttlefish Squids, cuttlefishes, octopuses  2012  7717
##  5 Tunisia  Common cuttlefish Squids, cuttlefishes, octopuses  2011  6371
##  6 Tunisia  Common cuttlefish Squids, cuttlefishes, octopuses  2008  4913
##  7 Tunisia  Common cuttlefish Squids, cuttlefishes, octopuses  2009  3924
##  8 Portugal Common cuttlefish Squids, cuttlefishes, octopuses  2010  2027
##  9 Libya    Common cuttlefish Squids, cuttlefishes, octopuses  2009  1800
## 10 Libya    Common cuttlefish Squids, cuttlefishes, octopuses  2010  1750
## # ... with 95 more rows
```
…
